<define-tag pagetitle>DLA-3228-1 node-json-schema</define-tag>
<define-tag report_date>2022-12-07</define-tag>
<define-tag secrefs>CVE-2021-3918 Bug#999765</define-tag>
<define-tag packages>node-json-schema</define-tag>
<define-tag isvulnerable>yes</define-tag>
<define-tag fixed>yes</define-tag>
<define-tag fixed-section>no</define-tag>

#use wml::debian::security

