<define-tag pagetitle>DLA-3231-1 dlt-daemon</define-tag>
<define-tag report_date>2022-12-07</define-tag>
<define-tag secrefs>CVE-2020-29394 CVE-2020-36244 CVE-2022-31291 Bug#976228 Bug#1014534</define-tag>
<define-tag packages>dlt-daemon</define-tag>
<define-tag isvulnerable>yes</define-tag>
<define-tag fixed>yes</define-tag>
<define-tag fixed-section>no</define-tag>

#use wml::debian::security

