<define-tag pagetitle>DLA-3233-1 leptonlib</define-tag>
<define-tag report_date>2022-12-08</define-tag>
<define-tag secrefs>CVE-2022-38266</define-tag>
<define-tag packages>leptonlib</define-tag>
<define-tag isvulnerable>yes</define-tag>
<define-tag fixed>yes</define-tag>
<define-tag fixed-section>no</define-tag>

#use wml::debian::security

