<define-tag pagetitle>DLA-3221-1 node-cached-path-relative</define-tag>
<define-tag report_date>2022-12-05</define-tag>
<define-tag secrefs>CVE-2018-16472 CVE-2021-23518 Bug#1004338</define-tag>
<define-tag packages>node-cached-path-relative</define-tag>
<define-tag isvulnerable>yes</define-tag>
<define-tag fixed>yes</define-tag>
<define-tag fixed-section>no</define-tag>

#use wml::debian::security

