<define-tag pagetitle>DLA-3214-1 libraw</define-tag>
<define-tag report_date>2022-11-30</define-tag>
<define-tag secrefs>CVE-2020-15503</define-tag>
<define-tag packages>libraw</define-tag>
<define-tag isvulnerable>yes</define-tag>
<define-tag fixed>yes</define-tag>
<define-tag fixed-section>no</define-tag>

#use wml::debian::security

