<define-tag pagetitle>DLA-3055-1 ntfs-3g</define-tag>
<define-tag report_date>2022-06-21</define-tag>
<define-tag secrefs>CVE-2022-30783 CVE-2022-30784 CVE-2022-30785 CVE-2022-30786 CVE-2022-30787 CVE-2022-30788 CVE-2022-30789 Bug#1011770</define-tag>
<define-tag packages>ntfs-3g</define-tag>
<define-tag isvulnerable>yes</define-tag>
<define-tag fixed>yes</define-tag>
<define-tag fixed-section>no</define-tag>

#use wml::debian::security

