<define-tag pagetitle>DLA-2984-1 condor</define-tag>
<define-tag report_date>2022-4-19</define-tag>
<define-tag secrefs>CVE-2022-26110 Bug#1008634</define-tag>
<define-tag packages>condor</define-tag>
<define-tag isvulnerable>yes</define-tag>
<define-tag fixed>yes</define-tag>
<define-tag fixed-section>no</define-tag>

#use wml::debian::security

