<define-tag pagetitle>DLA-3014-1 elog</define-tag>
<define-tag report_date>2022-05-18</define-tag>
<define-tag secrefs>CVE-2020-8659</define-tag>
<define-tag packages>elog</define-tag>
<define-tag isvulnerable>yes</define-tag>
<define-tag fixed>yes</define-tag>
<define-tag fixed-section>no</define-tag>

#use wml::debian::security

