<define-tag pagetitle>DSA-4896-1 wordpress</define-tag>
<define-tag report_date>2021-4-22</define-tag>
<define-tag secrefs>CVE-2021-29447 CVE-2021-29450 Bug#987065</define-tag>
<define-tag packages>wordpress</define-tag>
<define-tag isvulnerable>yes</define-tag>
<define-tag fixed>yes</define-tag>
<define-tag fixed-section>no</define-tag>

#use wml::debian::security



</dl>
