<define-tag pagetitle>DSA-4970-1 postorius</define-tag>
<define-tag report_date>2021-9-09</define-tag>
<define-tag secrefs>CVE-2021-40347</define-tag>
<define-tag packages>postorius</define-tag>
<define-tag isvulnerable>yes</define-tag>
<define-tag fixed>yes</define-tag>
<define-tag fixed-section>no</define-tag>

#use wml::debian::security



</dl>
