<define-tag pagetitle>DSA-4867-1 grub2</define-tag>
<define-tag report_date>2021-3-02</define-tag>
<define-tag secrefs>CVE-2020-14372 CVE-2020-25632 CVE-2020-25647 CVE-2020-27749 CVE-2020-27779 CVE-2021-20225 CVE-2021-20233</define-tag>
<define-tag packages>grub2</define-tag>
<define-tag isvulnerable>yes</define-tag>
<define-tag fixed>yes</define-tag>
<define-tag fixed-section>no</define-tag>

#use wml::debian::security



</dl>
