<define-tag pagetitle>DSA-4907-1 composer</define-tag>
<define-tag report_date>2021-4-29</define-tag>
<define-tag secrefs>CVE-2021-29472</define-tag>
<define-tag packages>composer</define-tag>
<define-tag isvulnerable>yes</define-tag>
<define-tag fixed>yes</define-tag>
<define-tag fixed-section>no</define-tag>

#use wml::debian::security



</dl>
