<define-tag pagetitle>DSA-4792-1 openldap</define-tag>
<define-tag report_date>2020-11-17</define-tag>
<define-tag secrefs>CVE-2020-25709 CVE-2020-25710</define-tag>
<define-tag packages>openldap</define-tag>
<define-tag isvulnerable>yes</define-tag>
<define-tag fixed>yes</define-tag>
<define-tag fixed-section>no</define-tag>

#use wml::debian::security



</dl>
