<define-tag pagetitle>DSA-4775-1 python-flask-cors</define-tag>
<define-tag report_date>2020-10-19</define-tag>
<define-tag secrefs>CVE-2020-25032 Bug#969362</define-tag>
<define-tag packages>python-flask-cors</define-tag>
<define-tag isvulnerable>yes</define-tag>
<define-tag fixed>yes</define-tag>
<define-tag fixed-section>no</define-tag>

#use wml::debian::security



</dl>
