<define-tag pagetitle>DSA-4819-1 kitty</define-tag>
<define-tag report_date>2020-12-26</define-tag>
<define-tag secrefs>CVE-2020-35605</define-tag>
<define-tag packages>kitty</define-tag>
<define-tag isvulnerable>yes</define-tag>
<define-tag fixed>yes</define-tag>
<define-tag fixed-section>no</define-tag>

#use wml::debian::security



</dl>
