<define-tag pagetitle>DLA-2808-1 python3.5</define-tag>
<define-tag report_date>2021-11-05</define-tag>
<define-tag secrefs>CVE-2021-3733 CVE-2021-3737</define-tag>
<define-tag packages>python3.5</define-tag>
<define-tag isvulnerable>yes</define-tag>
<define-tag fixed>yes</define-tag>
<define-tag fixed-section>no</define-tag>

#use wml::debian::security

