<define-tag pagetitle>DLA-2846-1 raptor2</define-tag>
<define-tag report_date>2021-12-14</define-tag>
<define-tag secrefs>CVE-2020-25713</define-tag>
<define-tag packages>raptor2</define-tag>
<define-tag isvulnerable>yes</define-tag>
<define-tag fixed>yes</define-tag>
<define-tag fixed-section>no</define-tag>

#use wml::debian::security

