<define-tag pagetitle>DLA-819-1 mysql-5.5</define-tag>
<define-tag report_date>2017-2-9</define-tag>
<define-tag secrefs><not assigned yet> Bug##854713</define-tag>
<define-tag packages>mysql-5.5</define-tag>
<define-tag isvulnerable>yes</define-tag>
<define-tag fixed>yes</define-tag>
<define-tag fixed-section>no</define-tag>

#use wml::debian::security

