<define-tag pagetitle>DLA-770-2 libphp-phpmailer</define-tag>
<define-tag report_date>2017-1-3</define-tag>
<define-tag secrefs>CVE-2016-10033 Bug#849365</define-tag>
<define-tag packages>libphp-phpmailer</define-tag>
<define-tag isvulnerable>yes</define-tag>
<define-tag fixed>yes</define-tag>
<define-tag fixed-section>no</define-tag>

#use wml::debian::security

