<define-tag pagetitle>DLA-1086-1 enigmail</define-tag>
<define-tag report_date>2017-9-3</define-tag>
<define-tag packages>enigmail</define-tag>
<define-tag isvulnerable>yes</define-tag>
<define-tag fixed>yes</define-tag>
<define-tag fixed-section>no</define-tag>

#use wml::debian::security

