<define-tag pagetitle>DLA-3262-1 smarty3</define-tag>
<define-tag report_date>2023-01-05</define-tag>
<define-tag secrefs>CVE-2018-25047</define-tag>
<define-tag packages>smarty3</define-tag>
<define-tag isvulnerable>yes</define-tag>
<define-tag fixed>yes</define-tag>
<define-tag fixed-section>no</define-tag>

#use wml::debian::security
