<define-tag pagetitle>DLA-2334-1 ruby-websocket-extensions</define-tag>
<define-tag report_date>2020-08-19</define-tag>
<define-tag secrefs>CVE-2020-7663</define-tag>
<define-tag packages>ruby-websocket-extensions</define-tag>
<define-tag isvulnerable>yes</define-tag>
<define-tag fixed>yes</define-tag>
<define-tag fixed-section>no</define-tag>

#use wml::debian::security
