<define-tag pagetitle>DLA-1316-1 freeplane</define-tag>
<define-tag report_date>2018-3-24</define-tag>
<define-tag secrefs>CVE-2018-1000069 Bug#893663</define-tag>
<define-tag packages>freeplane</define-tag>
<define-tag isvulnerable>yes</define-tag>
<define-tag fixed>yes</define-tag>
<define-tag fixed-section>no</define-tag>

#use wml::debian::security

