<define-tag pagetitle>DLA-1246-1 transmission</define-tag>
<define-tag report_date>2018-1-18</define-tag>
<define-tag secrefs>CVE-2018-5702 Bug#886990</define-tag>
<define-tag packages>transmission</define-tag>
<define-tag isvulnerable>yes</define-tag>
<define-tag fixed>yes</define-tag>
<define-tag fixed-section>no</define-tag>

#use wml::debian::security

