<define-tag pagetitle>DLA-1229-1 imagemagick</define-tag>
<define-tag report_date>2018-1-4</define-tag>
<define-tag secrefs>CVE-2017-1000445 CVE-2017-1000476 Bug##886281</define-tag>
<define-tag packages>imagemagick</define-tag>
<define-tag isvulnerable>yes</define-tag>
<define-tag fixed>yes</define-tag>
<define-tag fixed-section>no</define-tag>

#use wml::debian::security

