<define-tag pagetitle>DLA-1369-1 linux</define-tag>
<define-tag report_date>2018-5-2</define-tag>
<define-tag secrefs>CVE-2017-0861 CVE-2017-5715 CVE-2017-13166 CVE-2017-16526 CVE-2017-16911 CVE-2017-16912 CVE-2017-16913 CVE-2017-1691 CVE-2017-18017 CVE-2017-18203 CVE-2017-18216 CVE-2018-1068 CVE-2018-1092 CVE-2018-5332 CVE-2018-5333 CVE-2018-5750 CVE-2018-5803 CVE-2018-6927 CVE-2018-7492 CVE-2018-7566 CVE-2018-7740 CVE-2018-7757 CVE-2018-7995 CVE-2018-8781 CVE-2018-8822 CVE-2018-1000004 CVE-2018-1000199 Bug#887106</define-tag>
<define-tag packages>linux</define-tag>
<define-tag isvulnerable>yes</define-tag>
<define-tag fixed>yes</define-tag>
<define-tag fixed-section>no</define-tag>

#use wml::debian::security

