<define-tag pagetitle>DLA-1281-1 advancecomp</define-tag>
<define-tag report_date>2018-2-13</define-tag>
<define-tag secrefs>CVE-2018-1056 Bug#889270</define-tag>
<define-tag packages>advancecomp</define-tag>
<define-tag isvulnerable>yes</define-tag>
<define-tag fixed>yes</define-tag>
<define-tag fixed-section>no</define-tag>

#use wml::debian::security

