<define-tag pagetitle>DLA-1460-1 libmspack</define-tag>
<define-tag report_date>2018-8-6</define-tag>
<define-tag secrefs>CVE-2018-14681 CVE-2018-14682 CVE-2018-14679 CVE-2018-14680 Bug##904799 Bug##904800 Bug##904801 Bug##904802</define-tag>
<define-tag packages>libmspack</define-tag>
<define-tag isvulnerable>yes</define-tag>
<define-tag fixed>yes</define-tag>
<define-tag fixed-section>no</define-tag>

#use wml::debian::security

