<define-tag pagetitle>DSA-4584-1 spamassassin</define-tag>
<define-tag report_date>2019-12-14</define-tag>
<define-tag secrefs>CVE-2018-11805 CVE-2019-12420 Bug#946652 Bug#946653</define-tag>
<define-tag packages>spamassassin</define-tag>
<define-tag isvulnerable>yes</define-tag>
<define-tag fixed>yes</define-tag>
<define-tag fixed-section>no</define-tag>

#use wml::debian::security



</dl>
