<define-tag pagetitle>DSA-5049-1 flatpak</define-tag>
<define-tag report_date>2022-1-20</define-tag>
<define-tag secrefs>CVE-2021-43860 CVE-2022-21682</define-tag>
<define-tag packages>flatpak</define-tag>
<define-tag isvulnerable>yes</define-tag>
<define-tag fixed>yes</define-tag>
<define-tag fixed-section>no</define-tag>

#use wml::debian::security



</dl>
