<define-tag pagetitle>DSA-5130-1 dpdk</define-tag>
<define-tag report_date>2022-5-05</define-tag>
<define-tag secrefs>CVE-2021-3839 CVE-2022-0669</define-tag>
<define-tag packages>dpdk</define-tag>
<define-tag isvulnerable>yes</define-tag>
<define-tag fixed>yes</define-tag>
<define-tag fixed-section>no</define-tag>

#use wml::debian::security



</dl>
