<define-tag pagetitle>DSA-5257-2 linux</define-tag>
<define-tag report_date>2022-10-23</define-tag>
<define-tag secrefs>Bug#1022025</define-tag>
<define-tag packages>linux</define-tag>
<define-tag isvulnerable>yes</define-tag>
<define-tag fixed>yes</define-tag>
<define-tag fixed-section>no</define-tag>

#use wml::debian::security



</dl>
