<define-tag pagetitle>DLA-1765-1 gpac</define-tag>
<define-tag report_date>2019-4-25</define-tag>
<define-tag secrefs>CVE-2019-11221 CVE-2019-11222</define-tag>
<define-tag packages>gpac</define-tag>
<define-tag isvulnerable>yes</define-tag>
<define-tag fixed>yes</define-tag>
<define-tag fixed-section>no</define-tag>

#use wml::debian::security

