<define-tag pagetitle>DLA-1706-1 poppler</define-tag>
<define-tag report_date>2019-3-8</define-tag>
<define-tag secrefs>CVE-2018-19058 CVE-2018-20481 CVE-2018-20662 CVE-2019-7310 CVE-2019-9200 Bug#913177 Bug#917325 Bug#918158 Bug#921215 Bug#923414</define-tag>
<define-tag packages>poppler</define-tag>
<define-tag isvulnerable>yes</define-tag>
<define-tag fixed>yes</define-tag>
<define-tag fixed-section>no</define-tag>

#use wml::debian::security

