<define-tag pagetitle>DLA-1790-1 lemonldap-ng</define-tag>
<define-tag report_date>2019-05-18</define-tag>
<define-tag secrefs>CVE-2019-12046 Bug#928944</define-tag>
<define-tag packages>lemonldap-ng</define-tag>
<define-tag isvulnerable>yes</define-tag>
<define-tag fixed>yes</define-tag>
<define-tag fixed-section>no</define-tag>

#use wml::debian::security

