<define-tag pagetitle>DLA-759-1 nss</define-tag>
<define-tag report_date>2016-12-23</define-tag>
<define-tag secrefs>CVE-2016-9074</define-tag>
<define-tag packages>nss</define-tag>
<define-tag isvulnerable>yes</define-tag>
<define-tag fixed>yes</define-tag>
<define-tag fixed-section>no</define-tag>

#use wml::debian::security

