<define-tag pagetitle>DLA-555-1 python-django</define-tag>
<define-tag report_date>2016-7-21</define-tag>
<define-tag secrefs>CVE-2016-6186 Bug#831799</define-tag>
<define-tag packages>python-django</define-tag>
<define-tag isvulnerable>yes</define-tag>
<define-tag fixed>yes</define-tag>
<define-tag fixed-section>no</define-tag>

#use wml::debian::security

