<define-tag pagetitle>DLA-685-1 libxi</define-tag>
<define-tag report_date>2016-10-26</define-tag>
<define-tag secrefs>CVE-2016-7945 CVE-2016-7946 Bug#840440</define-tag>
<define-tag packages>libxi</define-tag>
<define-tag isvulnerable>yes</define-tag>
<define-tag fixed>yes</define-tag>
<define-tag fixed-section>no</define-tag>

#use wml::debian::security

